{
    "/justpesce/*": {
      "target": "http://localhost:8080/",
      "secure": false,
      "logLevel":"debug",
      "changeOrigin":"true",
      "pathRewrite" : {
        "^/romaVolley/utente/getall": "/justp/admin/getalladmin"

      }
      
    }

  }